…
::: {.cell}

```{.r .cell-code}
print(eustock_long)
```

::: {.cell-output .cell-output-stdout}
```
# A tibble: 7,440 × 3
    time StockIndex Value
   <int> <chr>      <dbl>
 1     1 DAX        1629.
 2     1 SMI        1678.
 3     1 CAC        1773.
 4     1 FTSE       2444.
 5     2 DAX        1614.
 6     2 SMI        1688.
 7     2 CAC        1750.
 8     2 FTSE       2460.
 9     3 DAX        1607.
10     3 SMI        1679.
# ℹ 7,430 more rows
```
…
